<svg width="1024" height="1024" xmlns="http://www.w3.org/2000/svg">

 <g>
  <title>Layer 1</title>
  <path id="svg_1" d="m512,0c282.77,0 512,229.23 512,512c0,282.77 -229.23,512 -512,512c-282.77,0 -512,-229.23 -512,-512c0,-282.77 229.23,-512 512,-512z" fill="rgb(45, 74, 206)" fill-rule="evenodd"/>
  <ellipse ry="512.01867" rx="512.01863" id="svg_6" cy="512.03726" cx="512.00004" stroke="#000" fill="#000000"/>
 </g>
</svg>