<svg width="1024" height="1024" xmlns="http://www.w3.org/2000/svg">

 <g>
  <title>Layer 1</title>
  <path id="svg_1" d="m513.81808,0c282.77,0 512,229.23 512,512c0,282.77 -229.23,512 -512,512c-282.77,0 -512,-229.23 -512,-512c0,-282.77 229.23,-512 512,-512z" fill="rgb(255, 255, 255)" fill-rule="evenodd"/>
  <line id="svg_2" y2="693.38801" x2="324.73758" y1="347.95253" x1="141.11137" stroke-width="10" stroke="#000000" fill="none"/>
  <line id="svg_3" y2="693.38803" x2="691.99007" y1="691.56995" x1="321.10144" stroke-width="10" stroke="#000000" fill="none"/>
  <line id="svg_4" y2="693.38803" x2="690.17198" y1="331.5898" x1="862.88973" stroke-width="10" stroke="#000000" fill="none"/>
  <line id="svg_5" y2="386.13225" x2="357.46306" y1="344.31638" x1="137.4752" stroke-width="10" stroke="#000000" fill="none"/>
  <line id="svg_6" y2="387.95034" x2="653.81035" y1="333.40789" x1="861.07164" stroke-width="10" stroke="#000000" fill="none"/>
  <line id="svg_7" y2="249.77614" x2="504.72766" y1="386.13226" x1="352.00882" stroke-width="10" stroke="#000000" fill="none"/>
  <line id="svg_8" y2="251.59422" x2="502.90958" y1="387.95034" x1="657.44651" stroke-width="10" stroke="#000000" fill="none"/>
  <line id="svg_9" y2="73.42224" x2="-315.22709" y1="73.42224" x1="-317.04517" stroke-width="10" stroke="#000000" fill="none"/>
 </g>
</svg>